C:\osse\Eris09\src\test\java\de\hfu\ResidentRepositoryTest.java
C:\osse\Eris09\src\test\java\de\hfu\HalbjahrTest.java
C:\osse\Eris09\src\test\java\de\hfu\AppTest.java
C:\osse\Eris09\src\test\java\de\hfu\QueueTest.java
